Let us start things on bachelor-node06. I am job 158 task 16. My job is organized in steps, each srun is one step.
My job demo_array.slurm is dangerous and hard.
I start sleeping on bachelor-node06. I am job 158 task 16. Step is 0
Good morning on bachelor-node06! I am job 158 task 16. Step is 0
